…
`tidyfit` includes a data set of financial Fama-French factor returns
freely available
[here](https://mba.tuck.dartmouth.edu/pages/faculty/ken.french/data_library.html).
The data set includes monthly industry returns for 10 industries, as
well as monthly factor returns for 5 factors:

``` r
data <- tidyfit::Factor_Industry_Returns
data
#> # A tibble: 7,080 × 9
#>      Date Industry Return `Mkt-RF`   SMB   HML   RMW   CMA    RF
#>     <dbl> <chr>     <dbl>    <dbl> <dbl> <dbl> <dbl> <dbl> <dbl>
#>  1 196307 NoDur     -0.49    -0.39 -0.44 -0.89  0.68 -1.23  0.27
#>  2 196308 NoDur      4.89     5.07 -0.75  1.68  0.36 -0.34  0.25
#>  3 196309 NoDur     -1.69    -1.57 -0.55  0.08 -0.71  0.29  0.27
#>  4 196310 NoDur      2.65     2.53 -1.37 -0.14  2.8  -2.02  0.29
#>  5 196311 NoDur     -1.13    -0.85 -0.89  1.81 -0.51  2.31  0.27
#>  6 196312 NoDur      2.81     1.83 -2.07 -0.08  0.03 -0.04  0.29
#>  7 196401 NoDur      0.79     2.24  0.11  1.47  0.17  1.51  0.3 
#>  8 196402 NoDur      1.87     1.54  0.3   2.74 -0.05  0.9   0.26
#>  9 196403 NoDur      3.08     1.41  1.36  3.36 -2.21  3.19  0.31
#> 10 196404 NoDur     -0.48     0.1  -1.59 -0.58 -1.27 -1.04  0.29
#> # … with 7,070 more rows
```
…
To **predict**, we need data with the same columns as the input data and
simply use the generic `predict` function. Groups are respected and if
the response variable is in the data, it is included as a `truth` column
in the resulting object:

``` r
predict(subset_mod_frame, data)
#> # A tibble: 2,832 × 4
#> # Groups:   Industry, model [4]
#>    Industry model prediction truth
#>    <chr>    <chr>      <dbl> <dbl>
#>  1 Enrgy    enet      -4.75   2.29
#>  2 Enrgy    enet       2.90   3.94
#>  3 Enrgy    enet      -3.56  -3.64
#>  4 Enrgy    enet      -4.34  -0.32
#>  5 Enrgy    enet      -0.613 -1.16
#>  6 Enrgy    enet      -1.76   4.65
#>  7 Enrgy    enet       1.81   4.84
#>  8 Enrgy    enet       1.18   1.06
#>  9 Enrgy    enet       4.94   1.4 
#> 10 Enrgy    enet      -3.89   4.03
#> # … with 2,822 more rows
```

Finally, we can obtain a **tidy frame of the coefficients** using the
generic `coef` function:

``` r
estimates <- coef(subset_mod_frame)
estimates
#> # A tibble: 28 × 5
#> # Groups:   Industry, model [4]
#>    Industry model term        estimate model_info      
#>    <chr>    <chr> <chr>          <dbl> <list>          
#>  1 Enrgy    enet  (Intercept)   1.47   <tibble [1 × 4]>
#>  2 Enrgy    enet  Mkt-RF        1.13   <tibble [1 × 4]>
#>  3 Enrgy    enet  SMB           0.649  <tibble [1 × 4]>
#>  4 Enrgy    enet  HML           0.0703 <tibble [1 × 4]>
#>  5 Enrgy    enet  RMW          -0.552  <tibble [1 × 4]>
#>  6 Enrgy    enet  CMA           1.16   <tibble [1 × 4]>
#>  7 Enrgy    enet  RF          -13.5    <tibble [1 × 4]>
#>  8 Utils    enet  (Intercept)  -1.50   <tibble [1 × 4]>
#>  9 Utils    enet  Mkt-RF        0.229  <tibble [1 × 4]>
#> 10 Utils    enet  SMB           0.343  <tibble [1 × 4]>
#> # … with 18 more rows
```

The estimates contain additional method-specific information that is
nested in `model_info`. This can include standard errors, t-values and
similar information:

``` r
tidyr::unnest(estimates, model_info)
#> # A tibble: 28 × 8
#> # Groups:   Industry, model [4]
#>    Industry model term        estimate lambda dev.ratio std.error statistic
#>    <chr>    <chr> <chr>          <dbl>  <dbl>     <dbl>     <dbl>     <dbl>
#>  1 Enrgy    enet  (Intercept)   1.47    0.792     0.807        NA        NA
#>  2 Enrgy    enet  Mkt-RF        1.13    0.792     0.807        NA        NA
#>  3 Enrgy    enet  SMB           0.649   0.792     0.807        NA        NA
#>  4 Enrgy    enet  HML           0.0703  0.792     0.807        NA        NA
#>  5 Enrgy    enet  RMW          -0.552   0.792     0.807        NA        NA
#>  6 Enrgy    enet  CMA           1.16    0.792     0.807        NA        NA
#>  7 Enrgy    enet  RF          -13.5     0.792     0.807        NA        NA
#>  8 Utils    enet  (Intercept)  -1.50    1         0.445        NA        NA
#>  9 Utils    enet  Mkt-RF        0.229   1         0.445        NA        NA
#> 10 Utils    enet  SMB           0.343   1         0.445        NA        NA
#> # … with 18 more rows
```
…
