Predicting Boston House Prices
…
Let’s begin by loading the data, and splitting it into equally sized
training and test sets:

data <- MASS::Boston

# For reproducibility
set.seed(123)
ix_tst <- sample(1:nrow(data), round(nrow(data)*0.5))

data_trn <- data[-ix_tst,]
data_tst <- data[ix_tst,]

as_tibble(data)
#> # A tibble: 506 × 14
#>       crim    zn indus  chas   nox    rm   age   dis   rad   tax ptratio black
#>      <dbl> <dbl> <dbl> <int> <dbl> <dbl> <dbl> <dbl> <int> <dbl>   <dbl> <dbl>
#>  1 0.00632  18    2.31     0 0.538  6.58  65.2  4.09     1   296    15.3  397.
#>  2 0.0273    0    7.07     0 0.469  6.42  78.9  4.97     2   242    17.8  397.
#>  3 0.0273    0    7.07     0 0.469  7.18  61.1  4.97     2   242    17.8  393.
#>  4 0.0324    0    2.18     0 0.458  7.00  45.8  6.06     3   222    18.7  395.
#>  5 0.0690    0    2.18     0 0.458  7.15  54.2  6.06     3   222    18.7  397.
#>  6 0.0298    0    2.18     0 0.458  6.43  58.7  6.06     3   222    18.7  394.
#>  7 0.0883   12.5  7.87     0 0.524  6.01  66.6  5.56     5   311    15.2  396.
#>  8 0.145    12.5  7.87     0 0.524  6.17  96.1  5.95     5   311    15.2  397.
#>  9 0.211    12.5  7.87     0 0.524  5.63 100    6.08     5   311    15.2  387.
#> 10 0.170    12.5  7.87     0 0.524  6.00  85.9  6.59     5   311    15.2  387.
#> # … with 496 more rows, and 2 more variables: lstat <dbl>, medv <dbl>
…
